Chapter 6 ARIMA and seasonal ARIMA (sARIMA) | Applied statistics: Time series analysis
…
## # A tibble: 4 × 10
##   .model        .type     ME  RMSE   MAE    MPE  MAPE  MASE  RMSSE  ACF1
##   <chr>         <chr>  <dbl> <dbl> <dbl>  <dbl> <dbl> <dbl>  <dbl> <dbl>
## 1 auto          Test   -393. 1624. 1575. -0.535  1.50 0.126 0.0993  -0.5
## 2 sarima111_x11 Test  -1092. 2870. 2654. -1.30   2.57 0.213 0.176   -0.5
## 3 snaive        Test  -3297  3415. 3297  -3.15   3.15 0.264 0.209   -0.5
## 4 theta         Test   1738. 4602. 4261.  1.14   3.75 0.341 0.282   -0.5

Using cross validation.

m_slide = rf_m |> slide_tsibble(.size = 60, .step = 1)

m_slide

## # A tsibble: 9,720 x 5 [1M]
## # Key:       .id, code, name [162]
##       code name                  total     date   .id
##    <int64> <chr>                 <int>    <mth> <int>
##  1     643 Российская Федерация  55509 2006 Jan     1
##  2     643 Российская Федерация  62449 2006 Feb     1
##  3     643 Российская Федерация  70798 2006 Mar     1
##  4     643 Российская Федерация  86055 2006 Apr     1
##  5     643 Российская Федерация  35960 2006 May     1
##  6     643 Российская Федерация 111409 2006 Jun     1
##  7     643 Российская Федерация 127475 2006 Jul     1
##  8     643 Российская Федерация 149120 2006 Aug     1
##  9     643 Российская Федерация 151116 2006 Sep     1
## 10     643 Российская Федерация  95192 2006 Oct     1
## # ℹ 9,710 more rows
…
