Chapter 7 ARIMA with predictors | Applied statistics: Time series analysis
…
time(denmark)

##  [1] "1974 Q1" "1974 Q2" "1974 Q3" "1974 Q4" "1975 Q1" "1975 Q2" "1975 Q3" "1975 Q4" "1976 Q1" "1976 Q2" "1976 Q3" "1976 Q4" "1977 Q1" "1977 Q2" "1977 Q3"
## [16] "1977 Q4" "1978 Q1" "1978 Q2" "1978 Q3" "1978 Q4" "1979 Q1" "1979 Q2" "1979 Q3" "1979 Q4" "1980 Q1" "1980 Q2" "1980 Q3" "1980 Q4" "1981 Q1" "1981 Q2"
## [31] "1981 Q3" "1981 Q4" "1982 Q1" "1982 Q2" "1982 Q3" "1982 Q4" "1983 Q1" "1983 Q2" "1983 Q3" "1983 Q4" "1984 Q1" "1984 Q2" "1984 Q3" "1984 Q4" "1985 Q1"
## [46] "1985 Q2" "1985 Q3" "1985 Q4" "1986 Q1" "1986 Q2" "1986 Q3" "1986 Q4" "1987 Q1" "1987 Q2" "1987 Q3"

den <- as_tibble(denmark)

den

## # A tibble: 55 × 5
##      LRM   LRY    LPY   IBO    IDE
##    <dbl> <dbl>  <dbl> <dbl>  <dbl>
##  1  11.6  5.90 -0.619 0.155 0.094 
##  2  11.6  5.87 -0.581 0.178 0.0955
##  3  11.6  5.84 -0.543 0.171 0.0955
##  4  11.6  5.81 -0.505 0.152 0.0955
##  5  11.6  5.80 -0.486 0.134 0.0885
##  6  11.6  5.79 -0.454 0.133 0.079 
##  7  11.7  5.83 -0.441 0.128 0.076 
##  8  11.8  5.93 -0.439 0.129 0.074 
##  9  11.8  5.94 -0.404 0.141 0.072 
## 10  11.8  5.94 -0.373 0.153 0.078 
## # ℹ 45 more rows

den2 <- den |> mutate(quarter = yearquarter(time(denmark)))
den2

## # A tibble: 55 × 6
##      LRM   LRY    LPY   IBO    IDE quarter
##    <dbl> <dbl>  <dbl> <dbl>  <dbl>   <qtr>
##  1  11.6  5.90 -0.619 0.155 0.094  1974 Q1
##  2  11.6  5.87 -0.581 0.178 0.0955 1974 Q2
##  3  11.6  5.84 -0.543 0.171 0.0955 1974 Q3
##  4  11.6  5.81 -0.505 0.152 0.0955 1974 Q4
##  5  11.6  5.80 -0.486 0.134 0.0885 1975 Q1
##  6  11.6  5.79 -0.454 0.133 0.079  1975 Q2
##  7  11.7  5.83 -0.441 0.128 0.076  1975 Q3
##  8  11.8  5.93 -0.439 0.129 0.074  1975 Q4
##  9  11.8  5.94 -0.404 0.141 0.072  1976 Q1
## 10  11.8  5.94 -0.373 0.153 0.078  1976 Q2
## # ℹ 45 more rows
…
