Chapter 1 Components of time series and naive models | Applied statistics: Time series analysis
…
# loading libraries
library(tidyverse)
library(fpp3)

Create time series from scratch.

set.seed(777)
n_obs <- 120
two <- tsibble(date = yearmonth(ymd('2010-01-01') + months(0: (n_obs - 1))),
               iid = rnorm(n_obs, mean = 10, sd = 4),
               rwalk = 10 + cumsum(rnorm(n_obs, mean = 0, sd = 1)),
               index = date)
two

## # A tsibble: 120 x 3 [1M]
##        date   iid rwalk
##       <mth> <dbl> <dbl>
##  1 2010 Jan 12.0  10.3 
##  2 2010 Feb  8.41  9.33
##  3 2010 Mar 12.0   8.19
##  4 2010 Apr  8.40  8.03
##  5 2010 May 16.6   7.31
##  6 2010 Jun 12.5   7.99
##  7 2010 Jul 10.8   8.50
##  8 2010 Aug 14.4   9.33
##  9 2010 Sep  9.18 10.8 
## 10 2010 Oct  8.48 12.4 
## # ℹ 110 more rows
…
d8 <- d7 |>
  select(-month, - year)
glimpse(d8)

## Rows: 24,852
## Columns: 4
## $ code  <chr> "643", "643", "643", "643", "643", "643", "643", "643", "643", "643", "643", "643", "643", "643", "643", "643", "643", "643", "643", "643", "643", …
## $ name  <chr> "Российская Федерация", "Российская Федерация", "Российская Федерация", "Российская Федерация", "Российская Федерация", "Российская Федерация", "Ро…
## $ total <dbl> 55509, 59495, 58668, 65507, 62980, 57949, 55008, 56123, 59291, 58050, 48523, 50940, 49005, 45259, 41233, 47328, 41675, 43990, 40799, 62449, 68255, …
## $ date  <mth> 2006 Jan, 2007 Jan, 2008 Jan, 2009 Jan, 2010 Jan, 2011 Jan, 2012 Jan, 2013 Jan, 2014 Jan, 2015 Jan, 2016 Jan, 2017 Jan, 2018 Jan, 2019 Jan, 2020 Ja…

marriages <- as_tsibble(d8, index = date, key = c('code', 'name'))
marriages

## # A tsibble: 24,852 x 4 [1M]
## # Key:       code, name [109]
##    code        name           total     date
##    <chr>       <chr>          <dbl>    <mth>
##  1 01000000000 Алтайский край   953 2006 Jan
##  2 01000000000 Алтайский край  1007 2006 Feb
##  3 01000000000 Алтайский край  1311 2006 Mar
##  4 01000000000 Алтайский край  1554 2006 Apr
##  5 01000000000 Алтайский край   562 2006 May
##  6 01000000000 Алтайский край  1900 2006 Jun
##  7 01000000000 Алтайский край  2338 2006 Jul
##  8 01000000000 Алтайский край  3034 2006 Aug
##  9 01000000000 Алтайский край  2460 2006 Sep
## 10 01000000000 Алтайский край  1762 2006 Oct
## # ℹ 24,842 more rows
…
4. Time Series Analysis

stl_model <- m_rf_full |>
  model(decomp = STL(total ~ trend(window = 7) + season(window = 100)))

components(stl_model)

## # A dable: 221 x 9 [1M]
## # Key:     code, name, .model [1]
## # :        total = trend + season_year + remainder
##       code name                 .model     date  total  trend season_year remainder season_adjust
##    <int64> <chr>                <chr>     <mth>  <int>  <dbl>       <dbl>     <dbl>         <dbl>
##  1     643 Российская Федерация decomp 2006 Jan  55509 94148.     -38464.     -175.        93973.
##  2     643 Российская Федерация decomp 2006 Feb  62449 93714.     -28148.    -3116.        90597.
##  3     643 Российская Федерация decomp 2006 Mar  70798 92846.     -25553.     3505.        96351.
##  4     643 Российская Федерация decomp 2006 Apr  86055 91970.     -11524.     5608.        97579.
##  5     643 Российская Федерация decomp 2006 May  35960 89642.     -47305.    -6377.        83265.
##  6     643 Российская Федерация decomp 2006 Jun 111409 87064.      23080.     1265.        88329.
##  7     643 Российская Федерация decomp 2006 Jul 127475 89339.      43219.    -5083.        84256.
##  8     643 Российская Федерация decomp 2006 Aug 149120 93710.      59269.    -3859.        89851.
##  9     643 Российская Федерация decomp 2006 Sep 151116 95884.      39842.    15390.       111274.
## 10     643 Российская Федерация decomp 2006 Oct  95192 96999.       5812.    -7619.        89380.
## # ℹ 211 more rows
…
