Chapter 8 Missing values, anomalies, structural shift | Applied statistics: Time series analysis
…
Add a new column for date.

n <- nrow(air)
air2 <- air |> mutate(date = ymd('1949-01-01') + months(0:(n-1)))

air2

## # A tibble: 144 × 2
##     pass date      
##    <dbl> <date>    
##  1   112 1949-01-01
##  2   118 1949-02-01
##  3   132 1949-03-01
##  4   129 1949-04-01
##  5   121 1949-05-01
##  6   135 1949-06-01
##  7   148 1949-07-01
##  8   148 1949-08-01
##  9   136 1949-09-01
## 10   119 1949-10-01
## # ℹ 134 more rows
…
Make a log-transformation to stabilize the variance of the data.

air3 <- air2 |> mutate(ln_pass = log(pass))
air3

## # A tibble: 144 × 3
##     pass date       ln_pass
##    <dbl> <date>       <dbl>
##  1   112 1949-01-01    4.72
##  2   118 1949-02-01    4.77
##  3   132 1949-03-01    4.88
##  4   129 1949-04-01    4.86
##  5   121 1949-05-01    4.80
##  6   135 1949-06-01    4.91
##  7   148 1949-07-01    5.00
##  8   148 1949-08-01    5.00
##  9   136 1949-09-01    4.91
## 10   119 1949-10-01    4.78
## # ℹ 134 more rows
…
