Chapter 4 Stationary Process | Applied statistics: Time series analysis
…
PACF of MA(q) process convergates to zero exponentially fast.

MA(q) process is stationary.

4.2 Examples

set.seed(777)

data <- tibble(y = arima.sim(n = 120, model = list(ma = 0.9)))

data$date <- yearmonth(ymd('2000-12-01') + months(1:120))

data

## # A tibble: 120 × 2
##          y     date
##      <dbl>    <mth>
##  1  0.0423 2001 Jan
##  2  0.152  2001 Feb
##  3  0.0609 2001 Mar
##  4  1.28   2001 Apr
##  5  2.10   2001 May
##  6  0.762  2001 Jun
##  7  1.29   2001 Jul
##  8  0.792  2001 Aug
##  9 -0.565  2001 Sep
## 10 -0.645  2001 Oct
## # ℹ 110 more rows

data <- as_tsibble(data, index = date)

data

## # A tsibble: 120 x 2 [1M]
##          y     date
##      <dbl>    <mth>
##  1  0.0423 2001 Jan
##  2  0.152  2001 Feb
##  3  0.0609 2001 Mar
##  4  1.28   2001 Apr
##  5  2.10   2001 May
##  6  0.762  2001 Jun
##  7  1.29   2001 Jul
##  8  0.792  2001 Aug
##  9 -0.565  2001 Sep
## 10 -0.645  2001 Oct
## # ℹ 110 more rows
…
